[
	{
		"_id": "a-05",
		"_parentId": "co-05",
		"_type": "article",
		"_classes": "",
		"title": "a-05",
		"displayTitle": "",
		"body": ""
	},
	{
		"_id": "a-10",
		"_parentId": "co-10",
		"_type": "article",
		"_classes": "",
		"title": "a-10",
		"displayTitle": "",
		"body": ""
	}
	
]
