﻿[
	{
		"_id": "co-05",
		"_parentId": "course",
		"_type": "page",
		"_classes": "",
		"title": "La comunidad de Instagram",
		"displayTitle": "La comunidad de Instagram",
		"pageBody": " ",
		"body": "La comunidad de Instagram está formada por una combinación de personas y negocios de todo el mundo que se unen para compartir lo que les apasiona e inspirarse.",
		"_graphic": {
			"src": "course/en/images/contentObjects/gene_paek5.png",
			"alt": "Imagen de “Introducción a Instagram”"
		},
		"linkText": "Ver",
		"durationLabel": "Duración:",
		"duration": "2 min",
		"_pageLevelProgress": {
			"_isEnabled": true
		}
	},
	{
		"_id": "co-10",
		"_parentId": "course",
		"_type": "page",
		"_classes": "",
		"title": "Primeros pasos en Instagram",
		"displayTitle": "Primeros pasos en Instagram",
		"pageBody": " ",
		"body": "Te proporcionamos algunas preguntas y prácticas recomendadas que debes tener en cuenta para dar tus primeros pasos en Instagram.",
		"_graphic": {
			"src": "course/en/images/contentObjects/julianaconstantino.png",
			"alt": "Imagen de “Primeros pasos en Instagram”"
		},
		"linkText": "Ver",
		"durationLabel": "Duración:",
		"duration": "2 min",
		"_pageLevelProgress": {
			"_isEnabled": true
		}
	}
]
